{
    "button-about-ouvert" : "about +",
    "button-about-ferme" : "about -",
    "about-text": "<p><i>\"An expression which, only a moment ago, was still alive and even seemed ineradicable, [can] suddenly vanish: it [disappears] with the situation that generated it and to which it will one day bear witness like a fossil\" (Klemperer, LTI, the language of the Third Reich, 1947).”<i></p><p>BⱯBEL RËVOLUㅏION  is an interactive, collaborative and multilingual dystopian tale. It seeks to explore the link between the loss of biodiversity and the loss of linguistic and cultural diversity. This transdisciplinary research-creation project, in process and constantly to be renewed, like any revolution, involves researchers from various disciplines (language didactics, literature, design, information and communication sciences) and computer science engineering students.But  BⱯBEL RËVOLUㅏION also invites you to take part in the work and become its author. </p><p><b>Credits</b></p><p>Project design and supervision: Serge Bouchardon, Isabelle Cros, Erika Fülöp, Simon Renaud. <br>Design and development : Florestan Biaux, Benoît Chevillon, Lucas D'Aquaro, Solène Desvaux de Marigny, Ismaïl Kadiri, Mathilde Lange, Claire Malgonne, Gabrielle Van de Vijver<p>",
   
    "intro_title1" : "Prologue",
    "intro_page1" : "<p>\"Make life b(l)o(ss)om again!\" Despite censorship, this mysterious tag is proliferating on the walls of the city and on social networks, with each new decree from the Centre of Monoculture, the CMC, the all-powerful agro-cultural institution governing both agro-forestry and intellectual life. What exactly is it exhorting people to do? Nobody knows exactly. Some say it's simply poets wanting to replant roses in the asphalt; others that it's nostalgia for archaic polyculture; others that it's insurgents fomenting a coup d'etat... The tag is multiplying with the forthcoming announcement of a new decree that would remove hundreds of names of flowers, plants and trees from the CMC's Official Dictionary, the latest in a long series of laws and amendments designed to purge the Common Language in order to \"update it and bring it more into line with the environment\", as the CMC's Official Dictionary stipulates. As a result, plant biodiversity has been drastically reduced, and the words to describe it have fallen with it.</p>",
    "intro_title2" : "Prologue",
    "intro_page2" : "<p>Under this tag, posts published in the DarkMachine bear witness to the impoverishment and colonisation of nature, culture and knowledge by humans, but also to the resistance being organised against this joint erosion of nature and (human) mind.</p><p>Assigned to their screens, dissidents resist by writing posts, the very multilingualism of which is already resistance, at the very coded heart of the Machine. And so, spontaneously, voices are sprouting, at first stammering and isolated, soon articulated, in languages eradicated by the Coup d'Etat: once flourishing, like English, Mandarin, Hindi, Spanish, Arabic, Bengali and Russian; but also from cultures that are now very distant, like Etruscan, Tregorese or Creole…</p>",
    "intro_title3" : "Prologue",
    "intro_page3" : "<p><p>Following the updating of the dictionary, and despite the ban on speaking these forbidden languages, the wall of the Machine is covered with graphs and digital glyphs, with technotexts, typoems and hypermediatised bursts of voice, with windows opening onto a multilingual hypertextual elsewhere that has become a prohibited zone, with memories of heterodox heterolingual encounters, with exhortations to cultivate one's garden, right here, right now, even in the tiniest crack in the language and the asphalt. And it doesn't matter if the languages unravel or merge, respond to each other, intertwine to the point of entangling the consonants... And who knows if this polyphony in all languages might not open up a path towards a revitalised diversity of both languages and seeds? And what if it wasn't too late? What if there was a way back? A way to make the world blossom again in diverse cultures? Yes, but how? Do you know?</p>",
   
    "title_presentation" : "<h1>New version (2025) : <a href='https://new.babel-revolution.fr/' target='_blank'>https://new.babel-revolution.fr/</a></h1></p><h1>WHAT IS BⱯBEL RËVOLUㅏION?</h1>",
    "text_presentation" : "<p><b><a href='http://www.utc.fr/~bouchard/works/presentation_Babel.pdf' target='_blank'>BⱯBEL RËVOLUㅏION</a></b> is an online participatory work with aims to invite reflections on the importance of diversity from an ecological, linguistic, and cultural perspective. It was created through an interdisciplinary collaboration informed by research in sociolinguistics and plurilingual pedagogy. It examines the connection between the loss of flora and the disappearance of languages through a multi-voiced narrative.</p><p>In a dystopian world, a resistance movement is growing against a political regime which applies a monolingual policy impoverishing both language and the natural world and contributing to the disappearance of words as well as the reality that they shape and refer to.</p><p>Voices are invited to be raised in online posts, in any language. The posts respond to central decrees or previous posts,  thus immediately connecting with them and constituting  a network that grows in the form of a dynamic graph. Will this polyphonic collective of rebels succeed in overturning monoculture and monolingualism? It depends on you!</p>",
    "title_animation" : "<h1>ANIMATE YOUR OWN BⱯBEL RËVOLUㅏION</h1>",
 "text_animation" : "<p>Teacher, facilitator of workshops, or simply revolutionary at heart? If you want to animate <a href='https://babel.utc.fr/admin/' target='_blank'>your own BⱯBEL RËVOLUㅏION</a>, contact the site administrators who will create an account and help you in the adventure.</br></br>BⱯBEL RËVOLUㅏION is a project by Serge Bouchardon, Isabelle Cros, Erika Fülöp, Simon Renaud and students from the Université de Technologie de Compiègne.</br>Contact: Serge Bouchardon (serge.bouchardon@utc.fr) and Isabelle Cros (isabelle.CROS@univ-amu.fr)</p>",
    "session_public" : "CURRENT PUBLIC SESSIONS",
    "completed_sessions":"COMPLETED SESSIONS",
   
    "button-next": "Continue",
    "button-back": "Back",
    "enter-world" : "Enter the DarkMachine",
   
    "messages" : "messages",
    "write-messages" : "write a message",
    "add-node-title" : "Title of the message",
    "add-node-author" : "Pseudo",
    "add-node-text" : "Text of the message",
    "in-reaction-to" : "In response to :",
    "belief" : "Position :",
    "belief-against": "Dissident",
    "belief-neutral": "Undecided",
    "belief-in-favor": "Supporter",
    "publish-title": "Publish",
   
    "written-by" : "written by",
   
    "title_for_toggle" : "titles",
    "title_for_zoom" : "size"
   }
